[
  [
    65.0,
    80.0,
    135.0,
    80.0,
    70.0,
    90.0,
    35.0,
    135.0,
    40.0,
    120.0
  ],
  [
    290.0,
    110.0,
    320.0,
    275.0,
    290.0,
    320.0,
    15.0,
    315.0,
    265.0,
    165.0
  ],
  [
    170.0,
    200.0,
    120.0,
    180.0,
    70.0,
    355.0,
    140.0,
    110.0,
    85.0,
    80.0
  ],
  [
    50.0,
    195.0,
    50.0,
    45.0,
    175.0,
    150.0,
    100.0,
    165.0,
    240.0,
    190.0
  ],
  [
    210.0,
    155.0,
    185.0,
    215.0,
    115.0,
    90.0,
    75.0,
    55.0,
    155.0,
    210.0
  ],
  [
    80.0,
    105.0,
    75.0,
    105.0,
    175.0,
    95.0,
    105.0,
    240.0,
    20.0,
    20.0
  ],
  [
    135.0,
    110.0,
    120.0,
    120.0,
    55.0,
    125.0,
    45.0,
    80.0,
    110.0,
    55.0
  ],
  [
    135.0,
    440.0,
    240.0,
    270.0,
    105.0,
    105.0,
    195.0,
    225.0,
    215.0,
    180.0
  ],
  [
    120.0,
    135.0,
    105.0,
    180.0,
    75.0,
    75.0,
    120.0,
    155.0,
    175.0,
    240.0
  ],
  [
    120.0,
    30.0,
    35.0,
    80.0,
    80.0,
    75.0,
    50.0,
    150.0,
    80.0,
    50.0
  ],
  [
    330.0,
    65.0,
    45.0,
    120.0,
    75.0,
    135.0,
    220.0,
    105.0,
    110.0,
    120.0
  ],
  [
    180.0,
    75.0,
    335.0,
    380.0,
    105.0,
    155.0,
    70.0,
    140.0,
    180.0,
    155.0
  ],
  [
    180.0,
    200.0,
    545.0,
    240.0,
    150.0,
    365.0,
    445.0,
    135.0,
    120.0,
    210.0
  ],
  [
    315.0,
    85.0,
    70.0,
    175.0,
    30.0,
    195.0,
    100.0,
    165.0,
    30.0,
    105.0
  ],
  [
    80.0,
    105.0,
    105.0,
    180.0,
    160.0,
    110.0,
    170.0,
    50.0,
    135.0,
    105.0
  ],
  [
    145.0,
    230.0,
    105.0,
    135.0,
    20.0,
    100.0,
    125.0,
    130.0,
    90.0,
    135.0
  ],
  [
    65.0,
    15.0,
    110.0,
    155.0,
    35.0,
    90.0,
    20.0,
    100.0,
    50.0,
    130.0
  ],
  [
    145.0,
    75.0,
    120.0,
    75.0,
    110.0,
    110.0,
    110.0,
    350.0,
    160.0,
    105.0
  ],
  [
    205.0,
    25.0,
    195.0,
    365.0,
    50.0,
    115.0,
    95.0,
    25.0,
    105.0,
    85.0
  ],
  [
    15.0,
    145.0,
    90.0,
    160.0,
    50.0,
    80.0,
    45.0,
    225.0,
    280.0,
    110.0
  ],
  [
    75.0,
    140.0,
    50.0,
    380.0,
    185.0,
    240.0,
    285.0,
    160.0,
    135.0,
    230.0
  ],
  [
    275.0,
    45.0,
    335.0,
    50.0,
    105.0,
    105.0,
    140.0,
    55.0,
    30.0,
    70.0
  ],
  [
    95.0,
    110.0,
    165.0,
    90.0,
    85.0,
    25.0,
    50.0,
    45.0,
    360.0,
    95.0
  ],
  [
    535.0,
    170.0,
    115.0,
    135.0,
    255.0,
    285.0,
    215.0,
    185.0,
    195.0,
    0.0
  ],
  [
    210.0,
    180.0,
    210.0,
    210.0,
    180.0,
    180.0,
    155.0,
    180.0,
    380.0,
    180.0
  ],
  [
    395.0,
    110.0,
    45.0,
    240.0,
    160.0,
    250.0,
    250.0,
    145.0,
    245.0,
    145.0
  ],
  [
    160.0,
    140.0,
    240.0,
    220.0,
    460.0,
    130.0,
    130.0,
    135.0,
    50.0,
    20.0
  ],
  [
    155.0,
    210.0,
    260.0,
    105.0,
    155.0,
    210.0,
    260.0,
    270.0,
    155.0,
    200.0
  ],
  [
    130.0,
    205.0,
    170.0,
    120.0,
    270.0,
    185.0,
    150.0,
    190.0,
    180.0,
    175.0
  ],
  [
    140.0,
    75.0,
    210.0,
    140.0,
    95.0,
    285.0,
    210.0,
    190.0,
    435.0,
    110.0
  ],
  [
    205.0,
    120.0,
    90.0,
    95.0,
    115.0,
    435.0,
    95.0,
    165.0,
    255.0,
    155.0
  ],
  [
    410.0,
    210.0,
    210.0,
    210.0,
    180.0,
    210.0,
    210.0,
    380.0,
    355.0,
    180.0
  ],
  [
    210.0,
    405.0,
    440.0,
    210.0,
    210.0,
    210.0,
    180.0,
    210.0,
    180.0,
    310.0
  ],
  [
    105.0,
    165.0,
    295.0,
    225.0,
    180.0,
    90.0,
    180.0,
    315.0,
    335.0,
    280.0
  ],
  [
    345.0,
    490.0,
    235.0,
    180.0,
    400.0,
    235.0,
    380.0,
    190.0,
    290.0,
    130.0
  ],
  [
    125.0,
    50.0,
    255.0,
    170.0,
    75.0,
    350.0,
    165.0,
    155.0,
    285.0,
    100.0
  ],
  [
    55.0,
    455.0,
    15.0,
    465.0,
    265.0,
    250.0,
    240.0,
    215.0,
    80.0,
    565.0
  ],
  [
    115.0,
    85.0,
    105.0,
    90.0,
    85.0,
    95.0,
    115.0,
    25.0,
    80.0,
    55.0
  ],
  [
    105.0,
    130.0,
    125.0,
    100.0,
    125.0,
    30.0,
    115.0,
    100.0,
    60.0,
    70.0
  ],
  [
    140.0,
    85.0,
    90.0,
    105.0,
    120.0,
    105.0,
    35.0,
    45.0,
    110.0,
    170.0
  ],
  [
    230.0,
    235.0,
    175.0,
    50.0,
    210.0,
    90.0,
    190.0,
    210.0,
    180.0,
    200.0
  ],
  [
    280.0,
    70.0,
    115.0,
    65.0,
    240.0,
    160.0,
    260.0,
    85.0,
    150.0,
    110.0
  ],
  [
    120.0,
    220.0,
    90.0,
    260.0,
    220.0,
    35.0,
    240.0,
    220.0,
    390.0,
    455.0
  ],
  [
    440.0,
    195.0,
    165.0,
    260.0,
    80.0,
    100.0,
    200.0,
    35.0,
    85.0,
    60.0
  ],
  [
    285.0,
    265.0,
    285.0,
    240.0,
    460.0,
    260.0,
    240.0,
    180.0,
    260.0,
    260.0
  ],
  [
    210.0,
    245.0,
    260.0,
    240.0,
    210.0,
    240.0,
    260.0,
    210.0,
    260.0,
    210.0
  ],
  [
    105.0,
    180.0,
    550.0,
    185.0,
    335.0,
    180.0,
    180.0,
    260.0,
    210.0,
    210.0
  ],
  [
    235.0,
    30.0,
    265.0,
    290.0,
    125.0,
    260.0,
    230.0,
    170.0,
    5.0,
    400.0
  ],
  [
    20.0,
    285.0,
    190.0,
    200.0,
    50.0,
    130.0,
    455.0,
    140.0,
    405.0,
    200.0
  ],
  [
    185.0,
    105.0,
    110.0,
    70.0,
    5.0,
    140.0,
    200.0,
    120.0,
    125.0,
    155.0
  ],
  [
    120.0,
    140.0,
    75.0,
    120.0,
    190.0,
    200.0,
    75.0,
    110.0,
    90.0,
    145.0
  ],
  [
    195.0,
    0.0,
    105.0,
    50.0,
    100.0,
    20.0,
    5.0,
    270.0,
    55.0,
    80.0
  ],
  [
    160.0,
    215.0,
    50.0,
    150.0,
    105.0,
    40.0,
    65.0,
    165.0,
    335.0,
    180.0
  ],
  [
    260.0,
    180.0,
    105.0,
    135.0,
    50.0,
    185.0,
    50.0,
    275.0,
    180.0,
    110.0
  ],
  [
    215.0,
    190.0,
    150.0,
    235.0,
    240.0,
    60.0,
    240.0,
    230.0,
    250.0,
    160.0
  ],
  [
    155.0,
    205.0,
    205.0,
    225.0,
    145.0,
    285.0,
    140.0,
    225.0,
    140.0,
    50.0
  ],
  [
    190.0,
    255.0,
    155.0,
    225.0,
    230.0,
    335.0,
    230.0,
    470.0,
    140.0,
    475.0
  ],
  [
    180.0,
    75.0,
    90.0,
    210.0,
    75.0,
    75.0,
    80.0,
    260.0,
    215.0,
    180.0
  ],
  [
    15.0,
    30.0,
    15.0,
    25.0,
    60.0,
    50.0,
    20.0,
    35.0,
    30.0,
    5.0
  ],
  [
    525.0,
    210.0,
    245.0,
    135.0,
    385.0,
    245.0,
    750.0,
    250.0,
    190.0,
    675.0
  ],
  [
    30.0,
    170.0,
    70.0,
    685.0,
    150.0,
    260.0,
    95.0,
    245.0,
    525.0,
    195.0
  ],
  [
    105.0,
    260.0,
    270.0,
    210.0,
    355.0,
    590.0,
    310.0,
    260.0,
    275.0,
    180.0
  ],
  [
    210.0,
    105.0,
    155.0,
    265.0,
    285.0,
    300.0,
    180.0,
    75.0,
    155.0,
    460.0
  ],
  [
    160.0,
    170.0,
    220.0,
    320.0,
    175.0,
    180.0,
    145.0,
    425.0,
    215.0,
    225.0
  ],
  [
    260.0,
    180.0,
    180.0,
    260.0,
    305.0,
    265.0,
    260.0,
    300.0,
    300.0,
    260.0
  ],
  [
    240.0,
    210.0,
    210.0,
    260.0,
    240.0,
    260.0,
    260.0,
    260.0,
    240.0,
    260.0
  ],
  [
    240.0,
    410.0,
    260.0,
    240.0,
    260.0,
    410.0,
    260.0,
    180.0,
    210.0,
    240.0
  ],
  [
    180.0,
    260.0,
    210.0,
    210.0,
    410.0,
    60.0,
    210.0,
    285.0,
    575.0,
    120.0
  ],
  [
    185.0,
    50.0,
    55.0,
    295.0,
    175.0,
    105.0,
    80.0,
    90.0,
    110.0,
    150.0
  ],
  [
    0.0,
    220.0,
    145.0,
    230.0,
    175.0,
    215.0,
    190.0,
    185.0,
    80.0,
    200.0
  ],
  [
    230.0,
    635.0,
    250.0,
    230.0,
    245.0,
    315.0,
    185.0,
    145.0,
    240.0,
    220.0
  ],
  [
    105.0,
    105.0,
    75.0,
    105.0,
    105.0,
    105.0,
    105.0,
    105.0,
    135.0,
    380.0
  ],
  [
    5.0,
    90.0,
    20.0,
    35.0,
    0.0,
    20.0,
    225.0,
    5.0,
    130.0,
    480.0
  ],
  [
    200.0,
    135.0,
    230.0,
    155.0,
    185.0,
    130.0,
    200.0,
    145.0,
    130.0,
    110.0
  ],
  [
    285.0,
    285.0,
    285.0,
    285.0,
    285.0,
    285.0,
    285.0,
    285.0,
    285.0,
    285.0
  ],
  [
    215.0,
    180.0,
    165.0,
    185.0,
    180.0,
    170.0,
    180.0,
    570.0,
    465.0,
    180.0
  ],
  [
    285.0,
    285.0,
    285.0,
    285.0,
    285.0,
    285.0,
    285.0,
    285.0,
    285.0,
    285.0
  ],
  [
    450.0,
    380.0,
    430.0,
    335.0,
    75.0,
    495.0,
    200.0,
    520.0,
    360.0,
    110.0
  ],
  [
    45.0,
    110.0,
    40.0,
    55.0,
    40.0,
    40.0,
    15.0,
    10.0,
    20.0,
    145.0
  ],
  [
    400.0,
    120.0,
    95.0,
    215.0,
    290.0,
    45.0,
    70.0,
    65.0,
    165.0,
    100.0
  ],
  [
    50.0,
    55.0,
    75.0,
    15.0,
    75.0,
    50.0,
    75.0,
    75.0,
    50.0,
    50.0
  ],
  [
    180.0,
    155.0,
    155.0,
    135.0,
    180.0,
    120.0,
    155.0,
    135.0,
    135.0,
    155.0
  ],
  [
    180.0,
    180.0,
    110.0,
    110.0,
    210.0,
    210.0,
    460.0,
    210.0,
    225.0,
    240.0
  ],
  [
    240.0,
    155.0,
    380.0,
    410.0,
    180.0,
    210.0,
    210.0,
    210.0,
    305.0,
    270.0
  ],
  [
    135.0,
    100.0,
    30.0,
    20.0,
    105.0,
    80.0,
    45.0,
    90.0,
    95.0,
    50.0
  ],
  [
    25.0,
    35.0,
    5.0,
    40.0,
    5.0,
    30.0,
    40.0,
    30.0,
    15.0,
    5.0
  ],
  [
    380.0,
    210.0,
    270.0,
    180.0,
    260.0,
    110.0,
    240.0,
    240.0,
    380.0,
    380.0
  ],
  [
    105.0,
    110.0,
    130.0,
    110.0,
    60.0,
    80.0,
    105.0,
    120.0,
    15.0,
    55.0
  ],
  [
    15.0,
    40.0,
    30.0,
    5.0,
    5.0,
    0.0,
    0.0,
    10.0,
    20.0,
    25.0
  ],
  [
    10.0,
    5.0,
    35.0,
    50.0,
    20.0,
    20.0,
    15.0,
    65.0,
    10.0,
    40.0
  ],
  [
    260.0,
    135.0,
    210.0,
    530.0,
    210.0,
    180.0,
    135.0,
    210.0,
    500.0,
    210.0
  ],
  [
    595.0,
    315.0,
    210.0,
    210.0,
    75.0,
    210.0,
    285.0,
    110.0,
    210.0,
    490.0
  ],
  [
    240.0,
    210.0,
    300.0,
    535.0,
    210.0,
    335.0,
    210.0,
    180.0,
    260.0,
    50.0
  ],
  [
    385.0,
    165.0,
    140.0,
    165.0,
    160.0,
    100.0,
    35.0,
    50.0,
    15.0,
    40.0
  ],
  [
    665.0,
    65.0,
    155.0,
    290.0,
    35.0,
    140.0,
    445.0,
    70.0,
    50.0,
    65.0
  ],
  [
    105.0,
    110.0,
    155.0,
    155.0,
    80.0,
    105.0,
    105.0,
    50.0,
    105.0,
    180.0
  ],
  [
    75.0,
    65.0,
    355.0,
    340.0,
    15.0,
    75.0,
    210.0,
    135.0,
    210.0,
    105.0
  ],
  [
    15.0,
    80.0,
    95.0,
    120.0,
    50.0,
    110.0,
    200.0,
    310.0,
    470.0,
    120.0
  ],
  [
    245.0,
    235.0,
    620.0,
    210.0,
    255.0,
    25.0,
    165.0,
    250.0,
    30.0,
    15.0
  ],
  [
    240.0,
    55.0,
    170.0,
    215.0,
    60.0,
    210.0,
    215.0,
    155.0,
    175.0,
    180.0
  ],
  [
    60.0,
    260.0,
    55.0,
    330.0,
    45.0,
    50.0,
    50.0,
    410.0,
    180.0,
    75.0
  ],
  [
    605.0,
    130.0,
    60.0,
    30.0,
    180.0,
    200.0,
    345.0,
    35.0,
    140.0,
    125.0
  ],
  [
    185.0,
    410.0,
    260.0,
    105.0,
    185.0,
    155.0,
    185.0,
    210.0,
    210.0,
    440.0
  ],
  [
    210.0,
    215.0,
    195.0,
    105.0,
    210.0,
    215.0,
    110.0,
    255.0,
    520.0,
    120.0
  ],
  [
    180.0,
    210.0,
    210.0,
    210.0,
    210.0,
    110.0,
    180.0,
    180.0,
    110.0,
    180.0
  ],
  [
    460.0,
    210.0,
    185.0,
    605.0,
    180.0,
    220.0,
    425.0,
    390.0,
    355.0,
    105.0
  ],
  [
    40.0,
    235.0,
    295.0,
    255.0,
    290.0,
    245.0,
    235.0,
    45.0,
    390.0,
    140.0
  ],
  [
    210.0,
    180.0,
    260.0,
    210.0,
    240.0,
    355.0,
    105.0,
    135.0,
    240.0,
    80.0
  ],
  [
    35.0,
    35.0,
    25.0,
    30.0,
    110.0,
    65.0,
    30.0,
    20.0,
    20.0,
    35.0
  ],
  [
    160.0,
    150.0,
    90.0,
    40.0,
    290.0,
    230.0,
    90.0,
    165.0,
    400.0,
    105.0
  ],
  [
    25.0,
    0.0,
    40.0,
    0.0,
    5.0,
    20.0,
    25.0,
    35.0,
    15.0,
    55.0
  ],
  [
    5.0,
    15.0,
    15.0,
    15.0,
    45.0,
    15.0,
    30.0,
    15.0,
    30.0,
    15.0
  ],
  [
    20.0,
    15.0,
    25.0,
    10.0,
    0.0,
    15.0,
    20.0,
    75.0,
    20.0,
    5.0
  ],
  [
    160.0,
    145.0,
    230.0,
    75.0,
    155.0,
    25.0,
    40.0,
    30.0,
    100.0,
    25.0
  ],
  [
    10.0,
    10.0,
    5.0,
    25.0,
    10.0,
    5.0,
    10.0,
    5.0,
    60.0,
    0.0
  ],
  [
    165.0,
    145.0,
    20.0,
    130.0,
    35.0,
    235.0,
    135.0,
    160.0,
    20.0,
    165.0
  ],
  [
    15.0,
    0.0,
    0.0,
    0.0,
    5.0,
    5.0,
    5.0,
    225.0,
    10.0,
    5.0
  ],
  [
    110.0,
    0.0,
    10.0,
    60.0,
    55.0,
    60.0,
    40.0,
    130.0,
    155.0,
    10.0
  ],
  [
    10.0,
    15.0,
    15.0,
    25.0,
    5.0,
    30.0,
    0.0,
    15.0,
    10.0,
    0.0
  ],
  [
    55.0,
    145.0,
    200.0,
    145.0,
    155.0,
    60.0,
    345.0,
    80.0,
    30.0,
    155.0
  ],
  [
    115.0,
    50.0,
    45.0,
    70.0,
    255.0,
    30.0,
    50.0,
    165.0,
    110.0,
    120.0
  ],
  [
    10.0,
    0.0,
    5.0,
    0.0,
    0.0,
    0.0,
    0.0,
    0.0,
    5.0,
    20.0
  ],
  [
    135.0,
    300.0,
    330.0,
    105.0,
    85.0,
    210.0,
    340.0,
    165.0,
    15.0,
    15.0
  ],
  [
    235.0,
    160.0,
    455.0,
    160.0,
    360.0,
    430.0,
    250.0,
    290.0,
    210.0,
    240.0
  ],
  [
    25.0,
    285.0,
    380.0,
    15.0,
    140.0,
    65.0,
    165.0,
    25.0,
    20.0,
    15.0
  ],
  [
    55.0,
    105.0,
    155.0,
    65.0,
    315.0,
    120.0,
    260.0,
    105.0,
    150.0,
    115.0
  ],
  [
    75.0,
    85.0,
    150.0,
    100.0,
    25.0,
    110.0,
    140.0,
    205.0,
    115.0,
    15.0
  ],
  [
    180.0,
    155.0,
    180.0,
    155.0,
    180.0,
    410.0,
    495.0,
    380.0,
    105.0,
    180.0
  ],
  [
    285.0,
    180.0,
    285.0,
    285.0,
    260.0,
    285.0,
    285.0,
    260.0,
    285.0,
    285.0
  ],
  [
    50.0,
    75.0,
    15.0,
    80.0,
    80.0,
    135.0,
    155.0,
    130.0,
    120.0,
    5.0
  ],
  [
    150.0,
    35.0,
    320.0,
    440.0,
    110.0,
    135.0,
    110.0,
    70.0,
    365.0,
    180.0
  ],
  [
    180.0,
    180.0,
    180.0,
    180.0,
    180.0,
    180.0,
    180.0,
    180.0,
    180.0,
    180.0
  ],
  [
    35.0,
    120.0,
    95.0,
    135.0,
    125.0,
    45.0,
    180.0,
    105.0,
    135.0,
    485.0
  ],
  [
    180.0,
    210.0,
    285.0,
    285.0,
    180.0,
    155.0,
    155.0,
    180.0,
    285.0,
    180.0
  ],
  [
    375.0,
    495.0,
    220.0,
    190.0,
    175.0,
    140.0,
    170.0,
    195.0,
    145.0,
    215.0
  ],
  [
    30.0,
    120.0,
    35.0,
    50.0,
    40.0,
    35.0,
    35.0,
    30.0,
    85.0,
    50.0
  ],
  [
    600.0,
    145.0,
    245.0,
    205.0,
    650.0,
    90.0,
    90.0,
    160.0,
    705.0,
    385.0
  ],
  [
    140.0,
    65.0,
    60.0,
    155.0,
    230.0,
    20.0,
    185.0,
    150.0,
    95.0,
    45.0
  ],
  [
    75.0,
    85.0,
    150.0,
    65.0,
    140.0,
    200.0,
    215.0,
    150.0,
    115.0,
    185.0
  ],
  [
    260.0,
    285.0,
    410.0,
    210.0,
    410.0,
    410.0,
    410.0,
    260.0,
    210.0,
    180.0
  ],
  [
    220.0,
    235.0,
    225.0,
    530.0,
    60.0,
    210.0,
    280.0,
    195.0,
    235.0,
    135.0
  ]
]